Lab 5
…
dangerousCarsPerState <- fatal %>%
  select(STATE, INJ_SEV, MAKE) %>% #select the columns we need State, Vehicles, Injuries.
  filter(MAKE != "NA") %>% #filter our missing values
  group_by(STATE, MAKE) %>% #group the states and Vehicles
  count(MAKE) %>% #count the accidents by Vehicle's
  group_by(STATE) %>% #group by the states
  top_n(n=1, n) %>%
  mutate(Vehicle = str_replace_all(MAKE, c("12" = "Ford", "20" = "Chevrolet","37" = "Honda" , "49" = "Toyota"))) %>%
  #from the manual, change the Attribute Codes to actaul Vehicle Make 
  rename('Accident Count' = n) %>% #rename n to Accident Count
  rename("State Code"= STATE) #rename STATE to State Code

print(dangerousCarsPerState )

## # A tibble: 54 x 4
## # Groups:   State Code [51]
##    `State Code`  MAKE `Accident Count` Vehicle  
##           <int> <int>            <int> <chr>    
##  1            1    12              138 Ford     
##  2            2    12                9 Ford     
##  3            4    20               88 Chevrolet
##  4            5    20               88 Chevrolet
##  5            6    49              351 Toyota   
##  6            8    12               63 Ford     
##  7            8    37               63 Honda    
##  8            9    37               28 Honda    
##  9           10    37               12 Honda    
## 10           11    37                5 Honda    
## #  with 44 more rows
…
winter <- acc %>%
  filter(MONTH == 1 | MONTH == 2 | MONTH == 11 | MONTH == 12)
  #filter the winter months
 
summer %>%
  group_by(STATE)%>%
  #group by state
  summarise("Summer Total" = n(), .groups = 'drop')%>%
  #get the total accidents by state
  top_n(10, "Summer Total")

## # A tibble: 51 x 2
##    STATE `Summer Total`
##    <int>          <int>
##  1     1            309
##  2     2             30
##  3     4            312
##  4     5            165
##  5     6           1159
##  6     8            242
##  7     9             89
##  8    10             34
##  9    11             13
## 10    12            924
## #  with 41 more rows

  #select the top 10 states

winter%>%
  group_by(STATE)%>%
  summarise("Winter Total" = n(), .groups = 'drop')%>%
  #get the total accidents by state
  top_n(10, "Winter Total")

## # A tibble: 51 x 2
##    STATE `Winter Total`
##    <int>          <int>
##  1     1            257
##  2     2             27
##  3     4            299
##  4     5            135
##  5     6           1072
##  6     8            170
##  7     9             82
##  8    10             36
##  9    11              8
## 10    12           1024
## #  with 41 more rows
…
